C:\Users\vitorw\Documents\NetBeansProjects\teste\PSVitorWeinfortner\src\main\java\com\mycompany\entity\Pedido.java
C:\Users\vitorw\Documents\NetBeansProjects\teste\PSVitorWeinfortner\src\main\java\com\mycompany\inteface\IPedidoRepository.java
C:\Users\vitorw\Documents\NetBeansProjects\teste\PSVitorWeinfortner\src\main\java\com\mycompany\psvitorweinfortner\JAXRSConfiguration.java
C:\Users\vitorw\Documents\NetBeansProjects\teste\PSVitorWeinfortner\src\main\java\com\mycompany\servlets\Servlet.java
C:\Users\vitorw\Documents\NetBeansProjects\teste\PSVitorWeinfortner\src\main\java\com\mycompany\controller\IndexController.java
C:\Users\vitorw\Documents\NetBeansProjects\teste\PSVitorWeinfortner\src\main\java\com\mycompany\controller\ProdutoController.java
C:\Users\vitorw\Documents\NetBeansProjects\teste\PSVitorWeinfortner\src\main\java\com\mycompany\psvitorweinfortner\resources\JavaEE8Resource.java
C:\Users\vitorw\Documents\NetBeansProjects\teste\PSVitorWeinfortner\src\main\java\com\mycompany\inteface\IProdutoRepository.java
C:\Users\vitorw\Documents\NetBeansProjects\teste\PSVitorWeinfortner\src\main\java\com\mycompany\repository\ProdutoRepository.java
C:\Users\vitorw\Documents\NetBeansProjects\teste\PSVitorWeinfortner\src\main\java\com\mycompany\entity\Produto.java
C:\Users\vitorw\Documents\NetBeansProjects\teste\PSVitorWeinfortner\src\main\java\com\mycompany\controller\PedidoController.java
C:\Users\vitorw\Documents\NetBeansProjects\teste\PSVitorWeinfortner\src\main\java\com\mycompany\repository\PedidoRepository.java
